…
**Output**: A list, each object of that list is a dataset. The number of
datasets contained in the list depends on the number of samples or
categories you have. Each dataset contains the 10 iterations from each
read depth.

``` r
obs1 <- clean_rarefy_data(obs, 1)
obs1[[1]]
```

    ## # A tibble: 100 x 3
    ##    sample_id Depth sequences
    ##    <chr>     <chr>     <int>
    ##  1 a1        1             1
    ##  2 a1        1             1
    ##  3 a1        1             1
    ##  4 a1        1             1
    ##  5 a1        1             1
    ##  6 a1        1             1
    ##  7 a1        1             1
    ##  8 a1        1             1
    ##  9 a1        1             1
    ## 10 a1        1             1
    ## # … with 90 more rows
…
