…
To check the kind of object `obs_nest`:

``` r
class(obs_nest)
```

    ## [1] "grouped_df" "tbl_df"     "tbl"        "data.frame"

To acces data:

``` r
obs_nest$data[[1]]
```

    ## # A tibble: 240 × 3
    ##    sample_id iter   asvs
    ##    <chr>     <chr> <int>
    ##  1 a1        1         1
    ##  2 a1        2         1
    ##  3 a1        3         1
    ##  4 a1        4         1
    ##  5 a1        5         1
    ##  6 a1        6         1
    ##  7 a1        7         1
    ##  8 a1        8         1
    ##  9 a1        9         1
    ## 10 a1        10        1
    ## # … with 230 more rows
…
